{"collection":[{"artwork_url":null,"caption":"Surah YaSin full - Islam Sobhi   سورة يس كاملة - اسلام صبحي","commentable":true,"comment_count":1880,"created_at":"2020-03-22T18:14:18Z","description":"Surah YaSin full - Islam Sobhi \n سورة يس كاملة - اسلام صبحي","downloadable":false,"download_count":1,"duration":977267,"full_duration":977267,"embeddable_by":"all","genre":"Religion & Spirituality","has_downloads_left":false,"id":781025620,"kind":"track","label_name":null,"last_modified":"2022-04-21T07:14:27Z","license":"all-rights-reserved","likes_count":105119,"permalink":"surah-yasin-islam-sobhy","permalink_url":"https://soundcloud.com/islamsobhi_official/surah-yasin-islam-sobhy","playback_count":5263749,"public":true,"publisher_metadata":{"id":781025620,"urn":"soundcloud:tracks:781025620","artist":"Islam Sobhi - اسلام صبحي","contains_music":true,"publisher":"MobiSoft Holding","isrc":"QZFP52069333","explicit":false},"purchase_title":null,"purchase_url":null,"release_date":"2020-03-21T00:00:00Z","reposts_count":2200,"secret_token":null,"sharing":"public","state":"finished","streamable":true,"tag_list":"\"سورة يس\" يس \"اسلام صبحي\" قران \"islam sobhi\" quran yasin \"surah yasin\" Religion","title":"Surah YaSin full - Islam Sobhi | سورة يس كاملة - اسلام صبحي","track_format":"single-track","uri":"https://api.soundcloud.com/tracks/781025620","urn":"soundcloud:tracks:781025620","user_id":329179234,"visuals":null,"waveform_url":"https://wave.sndcdn.com/CDHKgNYDLa3d_m.json","display_date":"2020-11-23T15:17:22Z","media":{"transcodings":[{"url":"https://api-v2.soundcloud.com/media/soundcloud:tracks:781025620/be89cd8f-a338-46d5-8033-4dc4d890a39b/stream/hls","preset":"mp3_0_1","duration":977267,"snipped":false,"format":{"protocol":"hls","mime_type":"audio/mpeg"},"quality":"sq"},{"url":"https://api-v2.soundcloud.com/media/soundcloud:tracks:781025620/be89cd8f-a338-46d5-8033-4dc4d890a39b/stream/progressive","preset":"mp3_0_1","duration":977267,"snipped":false,"format":{"protocol":"progressive","mime_type":"audio/mpeg"},"quality":"sq"},{"url":"https://api-v2.soundcloud.com/media/soundcloud:tracks:781025620/50ddaee5-d015-4c26-8553-6ffb93e62a3d/stream/hls","preset":"opus_0_0","duration":977233,"snipped":false,"format":{"protocol":"hls","mime_type":"audio/ogg; codecs=\"opus\""},"quality":"sq"}]},"station_urn":"soundcloud:system-playlists:track-stations:781025620","station_permalink":"track-stations:781025620","track_authorization":"eyJ0eXAiOiJKV1QiLCJhbGciOiJIUzI1NiJ9.eyJnZW8iOiJFRyIsInN1YiI6IiIsInJpZCI6IiIsImlhdCI6MTY3Mzc2ODczNn0.ZJyAkWH70umppzCc7TsvhzOxTRXZsBohMni1Se7TGsg","monetization_model":"NOT_APPLICABLE","policy":"ALLOW","user":{"avatar_url":"https://i1.sndcdn.com/avatars-CV6qZ5CzRDld0rGJ-aYwSFg-large.jpg","city":"Menofia","comments_count":0,"country_code":"EG","created_at":"2017-08-30T00:17:59Z","creator_subscriptions":[{"product":{"id":"free"}}],"creator_subscription":{"product":{"id":"free"}},"description":"الحساب الرسمي للقارئ اسلام صبحي\nThe Official Account for Islam Sobhi","followers_count":195542,"followings_count":1,"first_name":"Islam","full_name":"Islam Sobhi","groups_count":0,"id":329179234,"kind":"user","last_modified":"2022-03-22T18:35:01Z","last_name":"Sobhi","likes_count":63,"playlist_likes_count":1,"permalink":"islamsobhi_official","permalink_url":"https://soundcloud.com/islamsobhi_official","playlist_count":3,"reposts_count":null,"track_count":54,"uri":"https://api.soundcloud.com/users/329179234","urn":"soundcloud:users:329179234","username":"Islam Sobhi | اسلام صبحي","verified":false,"visuals":{"urn":"soundcloud:users:329179234","enabled":true,"visuals":[{"urn":"soundcloud:visuals:92151303","entry_time":0,"visual_url":"https://i1.sndcdn.com/visuals-000329179234-fKItl8-original.jpg"}],"tracking":null},"badges":{"pro":false,"pro_unlimited":false,"verified":false},"station_urn":"soundcloud:system-playlists:artist-stations:329179234","station_permalink":"artist-stations:329179234"}},{"artwork_url":"https://i1.sndcdn.com/artworks-000068072162-t75bri-large.jpg","caption":null,"commentable":true,"comment_count":298,"created_at":"2014-01-16T12:52:52Z","description":"","downloadable":true,"download_count":100,"duration":809113,"full_duration":809113,"embeddable_by":"all","genre":"Sudais","has_downloads_left":false,"id":129803149,"kind":"track","label_name":"","last_modified":"2022-05-03T07:19:03Z","license":"all-rights-reserved","likes_count":16050,"permalink":"surah-yasin-sheikh-sudais","permalink_url":"https://soundcloud.com/hbkb01/surah-yasin-sheikh-sudais","playback_count":1586801,"public":true,"publisher_metadata":null,"purchase_title":null,"purchase_url":null,"release_date":null,"reposts_count":636,"secret_token":null,"sharing":"public","state":"finished","streamable":true,"tag_list":"Quran Yasin Yaseen Surah","title":"36 Surah Yasin- Sheikh Sudais","track_format":"single-track","uri":"https://api.soundcloud.com/tracks/129803149","urn":"soundcloud:tracks:129803149","user_id":75435115,"visuals":null,"waveform_url":"https://wave.sndcdn.com/GzukuiawflSJ_m.json","display_date":"2014-01-16T12:52:52Z","media":{"transcodings":[{"url":"https://api-v2.soundcloud.com/media/soundcloud:tracks:129803149/8b311333-a333-44d3-9220-415a01a49022/stream/hls","preset":"mp3_0_0","duration":809113,"snipped":false,"format":{"protocol":"hls","mime_type":"audio/mpeg"},"quality":"sq"},{"url":"https://api-v2.soundcloud.com/media/soundcloud:tracks:129803149/8b311333-a333-44d3-9220-415a01a49022/stream/progressive","preset":"mp3_0_0","duration":809113,"snipped":false,"format":{"protocol":"progressive","mime_type":"audio/mpeg"},"quality":"sq"},{"url":"https://api-v2.soundcloud.com/media/soundcloud:tracks:129803149/a57a3251-5cfe-4069-b3f9-07375b54b57a/stream/hls","preset":"opus_0_0","duration":809113,"snipped":false,"format":{"protocol":"hls","mime_type":"audio/ogg; codecs=\"opus\""},"quality":"sq"}]},"station_urn":"soundcloud:system-playlists:track-stations:129803149","station_permalink":"track-stations:129803149","track_authorization":"eyJ0eXAiOiJKV1QiLCJhbGciOiJIUzI1NiJ9.eyJnZW8iOiJFRyIsInN1YiI6IiIsInJpZCI6IiIsImlhdCI6MTY3Mzc2ODczNn0.ZJyAkWH70umppzCc7TsvhzOxTRXZsBohMni1Se7TGsg","monetization_model":"NOT_APPLICABLE","policy":"ALLOW","user":{"avatar_url":"https://i1.sndcdn.com/avatars-000066379979-iscuyw-large.jpg","city":null,"comments_count":0,"country_code":null,"created_at":"2014-01-16T12:25:46Z","creator_subscriptions":[{"product":{"id":"free"}}],"creator_subscription":{"product":{"id":"free"}},"description":null,"followers_count":351,"followings_count":0,"first_name":"","full_name":"","groups_count":0,"id":75435115,"kind":"user","last_modified":"2015-09-05T23:28:15Z","last_name":"","likes_count":0,"playlist_likes_count":0,"permalink":"hbkb01","permalink_url":"https://soundcloud.com/hbkb01","playlist_count":0,"reposts_count":null,"track_count":4,"uri":"https://api.soundcloud.com/users/75435115","urn":"soundcloud:users:75435115","username":"hbkb01","verified":false,"visuals":null,"badges":{"pro":false,"pro_unlimited":false,"verified":false},"station_urn":"soundcloud:system-playlists:artist-stations:75435115","station_permalink":"artist-stations:75435115"}},{"artwork_url":"https://i1.sndcdn.com/artworks-mW6i8qPQVbsiQaAe-iFuO3w-large.jpg","caption":null,"commentable":true,"comment_count":276,"created_at":"2020-09-15T06:04:41Z","description":"","downloadable":false,"download_count":0,"duration":808411,"full_duration":808411,"embeddable_by":"all","genre":"","has_downloads_left":false,"id":893465524,"kind":"track","label_name":null,"last_modified":"2022-06-16T20:37:05Z","license":"all-rights-reserved","likes_count":36806,"permalink":"ya-sin-1","permalink_url":"https://soundcloud.com/holyquranofficial/ya-sin-1","playback_count":1714881,"public":true,"publisher_metadata":{"id":893465524,"urn":"soundcloud:tracks:893465524","artist":"أحمد العجمي","album_title":"مصحف الشيخ أحمد العجمي","contains_music":true},"purchase_title":null,"purchase_url":null,"release_date":null,"reposts_count":510,"secret_token":null,"sharing":"public","state":"finished","streamable":true,"tag_list":"\"قرآن كريم\"","title":"سورة يـس - الشيخ أحمد بن على العجمى | Surah Ya­Sin - Sheikh Ahmad bin Ali Al-Ajmi","track_format":"single-track","uri":"https://api.soundcloud.com/tracks/893465524","urn":"soundcloud:tracks:893465524","user_id":881381773,"visuals":null,"waveform_url":"https://wave.sndcdn.com/Vsi7KXeudMC7_m.json","display_date":"2020-09-15T06:04:41Z","media":{"transcodings":[{"url":"https://api-v2.soundcloud.com/media/soundcloud:tracks:893465524/3d4996e9-6e2d-462a-8198-3eb6a500dbdd/stream/hls","preset":"mp3_0_1","duration":808411,"snipped":false,"format":{"protocol":"hls","mime_type":"audio/mpeg"},"quality":"sq"},{"url":"https://api-v2.soundcloud.com/media/soundcloud:tracks:893465524/3d4996e9-6e2d-462a-8198-3eb6a500dbdd/stream/progressive","preset":"mp3_0_1","duration":808411,"snipped":false,"format":{"protocol":"progressive","mime_type":"audio/mpeg"},"quality":"sq"},{"url":"https://api-v2.soundcloud.com/media/soundcloud:tracks:893465524/da309928-28fb-4e2b-b0c1-2eec6332731f/stream/hls","preset":"opus_0_0","duration":808367,"snipped":false,"format":{"protocol":"hls","mime_type":"audio/ogg; codecs=\"opus\""},"quality":"sq"}]},"station_urn":"soundcloud:system-playlists:track-stations:893465524","station_permalink":"track-stations:893465524","track_authorization":"eyJ0eXAiOiJKV1QiLCJhbGciOiJIUzI1NiJ9.eyJnZW8iOiJFRyIsInN1YiI6IiIsInJpZCI6ImNkMzZiYjBlLTAxYTMtNDJmZS1hMTE0LTJiMGE5OGNjOWZlYiIsImlhdCI6MTY3Mzc2ODczNn0.fwf0NgMKQJMPzO_kuuL4PA8bQ1LQtUd6ozXhwQwGHt8","monetization_model":"NOT_APPLICABLE","policy":"ALLOW","user":{"avatar_url":"https://i1.sndcdn.com/avatars-8rlHYuzpqHeLNfIj-p7XWLw-large.jpg","city":null,"comments_count":0,"country_code":null,"created_at":"2020-09-15T04:04:00Z","creator_subscriptions":[{"product":{"id":"free"}}],"creator_subscription":{"product":{"id":"free"}},"description":null,"followers_count":105819,"followings_count":0,"first_name":"Holy","full_name":"Holy Quran","groups_count":0,"id":881381773,"kind":"user","last_modified":"2020-12-14T04:45:02Z","last_name":"Quran","likes_count":0,"playlist_likes_count":0,"permalink":"holyquranofficial","permalink_url":"https://soundcloud.com/holyquranofficial","playlist_count":9,"reposts_count":null,"track_count":711,"uri":"https://api.soundcloud.com/users/881381773","urn":"soundcloud:users:881381773","username":"Quran - قرآن","verified":false,"visuals":{"urn":"soundcloud:users:881381773","enabled":true,"visuals":[{"urn":"soundcloud:visuals:110877771","entry_time":0,"visual_url":"https://i1.sndcdn.com/visuals-000881381773-8hpe4F-original.jpg"}],"tracking":null},"badges":{"pro":false,"pro_unlimited":false,"verified":false},"station_urn":"soundcloud:system-playlists:artist-stations:881381773","station_permalink":"artist-stations:881381773"}},{"artwork_url":"https://i1.sndcdn.com/artworks-000081848073-6ilule-large.jpg","caption":null,"commentable":true,"comment_count":145,"created_at":"2013-07-30T05:44:57Z","description":"Surah Yasin - Sheikh Abdul Rahman As Sudais ","downloadable":true,"download_count":100,"duration":753571,"full_duration":753571,"embeddable_by":"all","genre":"Surah Yasin","has_downloads_left":false,"id":103207875,"kind":"track","label_name":"","last_modified":"2019-02-28T18:00:59Z","license":"all-rights-reserved","likes_count":8684,"permalink":"sheikh-abdul-rahman-al-sudais","permalink_url":"https://soundcloud.com/s28bd2/sheikh-abdul-rahman-al-sudais","playback_count":1046758,"public":true,"publisher_metadata":null,"purchase_title":null,"purchase_url":null,"release_date":null,"reposts_count":390,"secret_token":null,"sharing":"public","state":"finished","streamable":true,"tag_list":"","title":"Surah Yasin - Sheikh Abdul Rahman As Sudais","track_format":"single-track","uri":"https://api.soundcloud.com/tracks/103207875","urn":"soundcloud:tracks:103207875","user_id":32098142,"visuals":null,"waveform_url":"https://wave.sndcdn.com/NdNovLMBtyvk_m.json","display_date":"2013-07-30T05:44:57Z","media":{"transcodings":[{"url":"https://api-v2.soundcloud.com/media/soundcloud:tracks:103207875/9d387f12-6a14-4a4c-8a8d-07e9ce6dddc9/stream/hls","preset":"mp3_0_0","duration":753571,"snipped":false,"format":{"protocol":"hls","mime_type":"audio/mpeg"},"quality":"sq"},{"url":"https://api-v2.soundcloud.com/media/soundcloud:tracks:103207875/9d387f12-6a14-4a4c-8a8d-07e9ce6dddc9/stream/progressive","preset":"mp3_0_0","duration":753571,"snipped":false,"format":{"protocol":"progressive","mime_type":"audio/mpeg"},"quality":"sq"},{"url":"https://api-v2.soundcloud.com/media/soundcloud:tracks:103207875/f93488b5-4493-4858-aaba-d09deecd94f8/stream/hls","preset":"opus_0_0","duration":753571,"snipped":false,"format":{"protocol":"hls","mime_type":"audio/ogg; codecs=\"opus\""},"quality":"sq"}]},"station_urn":"soundcloud:system-playlists:track-stations:103207875","station_permalink":"track-stations:103207875","track_authorization":"eyJ0eXAiOiJKV1QiLCJhbGciOiJIUzI1NiJ9.eyJnZW8iOiJFRyIsInN1YiI6IiIsInJpZCI6IiIsImlhdCI6MTY3Mzc2ODczNn0.ZJyAkWH70umppzCc7TsvhzOxTRXZsBohMni1Se7TGsg","monetization_model":"NOT_APPLICABLE","policy":"ALLOW","user":{"avatar_url":"https://i1.sndcdn.com/avatars-000151502138-lsboxm-large.jpg","city":"Athens","comments_count":0,"country_code":"GR","created_at":"2013-01-06T17:48:10Z","creator_subscriptions":[{"product":{"id":"free"}}],"creator_subscription":{"product":{"id":"free"}},"description":"█║▌│█│║▌║││█║▌│║▌║\r\nORIGINAL PROFILE copyright ©\r\n\r\nA happy and social person who wants to have a lot of friends from all over the world,i like optimistic and funny people...i hate lies","followers_count":254,"followings_count":19,"first_name":"","full_name":"","groups_count":0,"id":32098142,"kind":"user","last_modified":"2015-07-22T13:09:14Z","last_name":"","likes_count":64,"playlist_likes_count":0,"permalink":"s28bd2","permalink_url":"https://soundcloud.com/s28bd2","playlist_count":0,"reposts_count":null,"track_count":23,"uri":"https://api.soundcloud.com/users/32098142","urn":"soundcloud:users:32098142","username":"S28BD","verified":false,"visuals":null,"badges":{"pro":false,"pro_unlimited":false,"verified":false},"station_urn":"soundcloud:system-playlists:artist-stations:32098142","station_permalink":"artist-stations:32098142"}},{"artwork_url":null,"caption":null,"commentable":true,"comment_count":5,"created_at":"2014-08-18T16:59:11Z","description":"SURAH YASIN","downloadable":false,"download_count":0,"duration":1078200,"full_duration":1078200,"embeddable_by":"all","genre":"SURAH","has_downloads_left":false,"id":163687464,"kind":"track","label_name":null,"last_modified":"2014-08-18T16:59:11Z","license":"all-rights-reserved","likes_count":875,"permalink":"surah-yasin","permalink_url":"https://soundcloud.com/nurnasir/surah-yasin","playback_count":86202,"public":true,"publisher_metadata":null,"purchase_title":null,"purchase_url":null,"release_date":null,"reposts_count":21,"secret_token":null,"sharing":"public","state":"finished","streamable":true,"tag_list":"YASIN","title":"SURAH YASIN","track_format":"single-track","uri":"https://api.soundcloud.com/tracks/163687464","urn":"soundcloud:tracks:163687464","user_id":89162436,"visuals":null,"waveform_url":"https://wave.sndcdn.com/cAXkm2ssce80_m.json","display_date":"2014-08-18T16:59:11Z","media":{"transcodings":[{"url":"https://api-v2.soundcloud.com/media/soundcloud:tracks:163687464/7dbd22f8-80e0-412d-82b7-8908df8e0b54/stream/hls","preset":"mp3_0_0","duration":1078200,"snipped":false,"format":{"protocol":"hls","mime_type":"audio/mpeg"},"quality":"sq"},{"url":"https://api-v2.soundcloud.com/media/soundcloud:tracks:163687464/7dbd22f8-80e0-412d-82b7-8908df8e0b54/stream/progressive","preset":"mp3_0_0","duration":1078200,"snipped":false,"format":{"protocol":"progressive","mime_type":"audio/mpeg"},"quality":"sq"}]},"station_urn":"soundcloud:system-playlists:track-stations:163687464","station_permalink":"track-stations:163687464","track_authorization":"eyJ0eXAiOiJKV1QiLCJhbGciOiJIUzI1NiJ9.eyJnZW8iOiJFRyIsInN1YiI6IiIsInJpZCI6IiIsImlhdCI6MTY3Mzc2ODczNn0.ZJyAkWH70umppzCc7TsvhzOxTRXZsBohMni1Se7TGsg","monetization_model":"NOT_APPLICABLE","policy":"ALLOW","user":{"avatar_url":"https://i1.sndcdn.com/avatars-000309667979-fltcl0-large.jpg","city":"Kuantan Pahang","comments_count":0,"country_code":"MY","created_at":"2014-04-12T23:21:00Z","creator_subscriptions":[{"product":{"id":"free"}}],"creator_subscription":{"product":{"id":"free"}},"description":null,"followers_count":43,"followings_count":1,"first_name":"Nur","full_name":"Nur Farizan","groups_count":0,"id":89162436,"kind":"user","last_modified":"2017-04-26T01:04:30Z","last_name":"Farizan","likes_count":18,"playlist_likes_count":0,"permalink":"nurnasir","permalink_url":"https://soundcloud.com/nurnasir","playlist_count":0,"reposts_count":null,"track_count":24,"uri":"https://api.soundcloud.com/users/89162436","urn":"soundcloud:users:89162436","username":"NurNasir","verified":false,"visuals":null,"badges":{"pro":false,"pro_unlimited":false,"verified":false},"station_urn":"soundcloud:system-playlists:artist-stations:89162436","station_permalink":"artist-stations:89162436"}},{"artwork_url":"https://i1.sndcdn.com/artworks-000076691286-dyt3m5-large.jpg","caption":null,"commentable":true,"comment_count":69,"created_at":"2014-04-16T11:52:25Z","description":"","downloadable":false,"download_count":0,"duration":1078618,"full_duration":1078618,"embeddable_by":"all","genre":"al-quran","has_downloads_left":false,"id":144965530,"kind":"track","label_name":null,"last_modified":"2022-12-26T19:46:46Z","license":"all-rights-reserved","likes_count":4814,"permalink":"surah-yasin-mishary-al-afasi","permalink_url":"https://soundcloud.com/subkymusni/surah-yasin-mishary-al-afasi","playback_count":454420,"public":true,"publisher_metadata":null,"purchase_title":null,"purchase_url":null,"release_date":null,"reposts_count":187,"secret_token":null,"sharing":"public","state":"finished","streamable":true,"tag_list":"al quran surah suroh surat yasin ya-sin yassin ya sin mishary afasi","title":"Surah Yasin - Mishary Rashid Alafasy","track_format":"single-track","uri":"https://api.soundcloud.com/tracks/144965530","urn":"soundcloud:tracks:144965530","user_id":59175838,"visuals":null,"waveform_url":"https://wave.sndcdn.com/IIPg68tLMnS0_m.json","display_date":"2014-04-16T11:52:25Z","media":{"transcodings":[{"url":"https://api-v2.soundcloud.com/media/soundcloud:tracks:144965530/ddd1dce6-4d39-4a75-a339-6657daf65a26/stream/hls","preset":"mp3_0_0","duration":1078618,"snipped":false,"format":{"protocol":"hls","mime_type":"audio/mpeg"},"quality":"sq"},{"url":"https://api-v2.soundcloud.com/media/soundcloud:tracks:144965530/ddd1dce6-4d39-4a75-a339-6657daf65a26/stream/progressive","preset":"mp3_0_0","duration":1078618,"snipped":false,"format":{"protocol":"progressive","mime_type":"audio/mpeg"},"quality":"sq"},{"url":"https://api-v2.soundcloud.com/media/soundcloud:tracks:144965530/75277d55-d59b-4e83-a144-71bf6440df80/stream/hls","preset":"opus_0_0","duration":1078618,"snipped":false,"format":{"protocol":"hls","mime_type":"audio/ogg; codecs=\"opus\""},"quality":"sq"}]},"station_urn":"soundcloud:system-playlists:track-stations:144965530","station_permalink":"track-stations:144965530","track_authorization":"eyJ0eXAiOiJKV1QiLCJhbGciOiJIUzI1NiJ9.eyJnZW8iOiJFRyIsInN1YiI6IiIsInJpZCI6IiIsImlhdCI6MTY3Mzc2ODczNn0.ZJyAkWH70umppzCc7TsvhzOxTRXZsBohMni1Se7TGsg","monetization_model":"NOT_APPLICABLE","policy":"ALLOW","user":{"avatar_url":"https://i1.sndcdn.com/avatars-IK5aWYXFi6t82K0x-J3jDNw-large.jpg","city":"Kedah","comments_count":0,"country_code":"MY","created_at":"2013-09-22T06:44:32Z","creator_subscriptions":[{"product":{"id":"free"}}],"creator_subscription":{"product":{"id":"free"}},"description":"telegram.me/MusicRockGroup","followers_count":1167,"followings_count":1,"first_name":"Möhd Sübky","full_name":"Möhd Sübky Möhd Sübky Mühåmåd Müsnï","groups_count":0,"id":59175838,"kind":"user","last_modified":"2022-12-26T18:08:27Z","last_name":"Möhd Sübky Mühåmåd Müsnï","likes_count":88,"playlist_likes_count":16,"permalink":"subkymusni","permalink_url":"https://soundcloud.com/subkymusni","playlist_count":3,"reposts_count":null,"track_count":23,"uri":"https://api.soundcloud.com/users/59175838","urn":"soundcloud:users:59175838","username":"subkymusni","verified":false,"visuals":null,"badges":{"pro":false,"pro_unlimited":false,"verified":false},"station_urn":"soundcloud:system-playlists:artist-stations:59175838","station_permalink":"artist-stations:59175838"}}],"total_results":710,"next_href":"https://api-v2.soundcloud.com/search/tracks?query_urn=soundcloud%3Asearch%3A888b19b2bf394de893ae7eef3d7eaddc&limit=6&offset=6&q=surah%20yasin","query_urn":"soundcloud:search:888b19b2bf394de893ae7eef3d7eaddc"}
